# 3ds Max Wavefront OBJ Exporter v0.97b - (c)2007 guruware
# File Created: 30.01.2016 20:42:29

newmtl wire_153228153
	Ns 32
	d 1
	illum 2
	Ka 0.3 0.3 0.3
	Ks 0.3500 0.3500 0.3500
	map_Kd HEAD diff MAP.jpg
	map_Ks HEAD bump line.jpg
	map_Bump HEAD bump MAP.jpg

newmtl Material__61
	Ns 10.0000
	d 1
	illum 2
	Ka 0.3 0.3 0.3
	Kd 0.7176 0.6902 0.6588
	Ks 0.0000 0.0000 0.0000
	map_Kd Head ring diff MAP.jpg
	map_Ks Head ring bump line.jpg

newmtl Material__62
	Ns 10.0000
	d 1
	illum 2
	Ka 0.3 0.3 0.3
	Kd 0.0275 0.0275 0.0275
	Ks 0.0000 0.0000 0.0000	

newmtl wire_028149177
	Ns 32
	d 1
	illum 2
	Ka 0.3 0.3 0.3
	Ks 0.3500 0.3500 0.3500
	map_Kd Body diff MAP.jpg
	map_Ks BODY bump line.jpg
	map_Bump BODY bump MAP.jpg
